       _ _                 _                           _
  _   (_) |               (_)                         | |
 | |_  _| | _   ____  ____ _ _   _     ____ ___   ____| | _  _   _
 |  _)| | || \ / _  )/ ___) | | | |   / ___) _ \ / ___) || \| | | |
 | |__| | |_) | (/ /| |   | | |_| |  ( (__| |_| | |   | |_) ) |_| |
 \___)_|____/ \____)_|   |_|\____|   \____)___/|_|   |____/ \____|

_____________________________________________________________________

Asset proudly built with Webpack and friends.
